-- Merging decision tree log ---
manifest
ADDED from E:\A_WORKS\wearFace\watchface\2-background\src\main\AndroidManifest.xml:18:1-59:12
	package
		ADDED from E:\A_WORKS\wearFace\watchface\2-background\src\main\AndroidManifest.xml:20:5-44
		INJECTED from E:\A_WORKS\wearFace\watchface\2-background\src\main\AndroidManifest.xml
		INJECTED from E:\A_WORKS\wearFace\watchface\2-background\src\main\AndroidManifest.xml
	android:versionName
		INJECTED from E:\A_WORKS\wearFace\watchface\2-background\src\main\AndroidManifest.xml
		INJECTED from E:\A_WORKS\wearFace\watchface\2-background\src\main\AndroidManifest.xml
	xmlns:tools
		ADDED from E:\A_WORKS\wearFace\watchface\2-background\src\main\AndroidManifest.xml:19:5-51
	xmlns:android
		ADDED from E:\A_WORKS\wearFace\watchface\2-background\src\main\AndroidManifest.xml:18:11-69
	android:versionCode
		INJECTED from E:\A_WORKS\wearFace\watchface\2-background\src\main\AndroidManifest.xml
		INJECTED from E:\A_WORKS\wearFace\watchface\2-background\src\main\AndroidManifest.xml
uses-feature#android.hardware.type.watch
ADDED from E:\A_WORKS\wearFace\watchface\2-background\src\main\AndroidManifest.xml:22:5-64
	android:name
		ADDED from E:\A_WORKS\wearFace\watchface\2-background\src\main\AndroidManifest.xml:22:19-61
uses-permission#com.google.android.permission.PROVIDE_BACKGROUND
ADDED from E:\A_WORKS\wearFace\watchface\2-background\src\main\AndroidManifest.xml:25:5-88
	android:name
		ADDED from E:\A_WORKS\wearFace\watchface\2-background\src\main\AndroidManifest.xml:25:22-85
uses-permission#android.permission.WAKE_LOCK
ADDED from E:\A_WORKS\wearFace\watchface\2-background\src\main\AndroidManifest.xml:26:5-68
	android:name
		ADDED from E:\A_WORKS\wearFace\watchface\2-background\src\main\AndroidManifest.xml:26:22-65
application
ADDED from E:\A_WORKS\wearFace\watchface\2-background\src\main\AndroidManifest.xml:28:5-57:19
MERGED from [com.google.android.support:wearable:1.4.0] E:\A_WORKS\wearFace\watchface\2-background\build\intermediates\exploded-aar\com.google.android.support\wearable\1.4.0\AndroidManifest.xml:8:5-20
MERGED from [com.android.support:support-v4:23.0.1] E:\A_WORKS\wearFace\watchface\2-background\build\intermediates\exploded-aar\com.android.support\support-v4\23.0.1\AndroidManifest.xml:22:5-20
MERGED from [com.android.support:support-v4:23.0.1] E:\A_WORKS\wearFace\watchface\2-background\build\intermediates\exploded-aar\com.android.support\support-v4\23.0.1\AndroidManifest.xml:22:5-20
MERGED from [com.google.android.gms:play-services-wearable:8.4.0] E:\A_WORKS\wearFace\watchface\2-background\build\intermediates\exploded-aar\com.google.android.gms\play-services-wearable\8.4.0\AndroidManifest.xml:19:5-20
MERGED from [com.google.android.gms:play-services-basement:8.4.0] E:\A_WORKS\wearFace\watchface\2-background\build\intermediates\exploded-aar\com.google.android.gms\play-services-basement\8.4.0\AndroidManifest.xml:20:5-24:19
MERGED from [com.android.support:support-v4:23.0.1] E:\A_WORKS\wearFace\watchface\2-background\build\intermediates\exploded-aar\com.android.support\support-v4\23.0.1\AndroidManifest.xml:22:5-20
	android:label
		ADDED from E:\A_WORKS\wearFace\watchface\2-background\src\main\AndroidManifest.xml:30:9-41
	tools:ignore
		ADDED from E:\A_WORKS\wearFace\watchface\2-background\src\main\AndroidManifest.xml:32:9-46
	android:allowBackup
		ADDED from E:\A_WORKS\wearFace\watchface\2-background\src\main\AndroidManifest.xml:29:9-35
	android:theme
		ADDED from E:\A_WORKS\wearFace\watchface\2-background\src\main\AndroidManifest.xml:31:9-59
service#com.android.example.watchface.MyWatchFaceService
ADDED from E:\A_WORKS\wearFace\watchface\2-background\src\main\AndroidManifest.xml:33:9-52:19
	android:label
		ADDED from E:\A_WORKS\wearFace\watchface\2-background\src\main\AndroidManifest.xml:35:13-51
	android:permission
		ADDED from E:\A_WORKS\wearFace\watchface\2-background\src\main\AndroidManifest.xml:36:13-67
	android:name
		ADDED from E:\A_WORKS\wearFace\watchface\2-background\src\main\AndroidManifest.xml:34:13-47
meta-data#android.service.wallpaper
ADDED from E:\A_WORKS\wearFace\watchface\2-background\src\main\AndroidManifest.xml:37:13-39:54
	android:resource
		ADDED from E:\A_WORKS\wearFace\watchface\2-background\src\main\AndroidManifest.xml:39:17-51
	android:name
		ADDED from E:\A_WORKS\wearFace\watchface\2-background\src\main\AndroidManifest.xml:38:17-57
meta-data#com.google.android.wearable.watchface.preview
ADDED from E:\A_WORKS\wearFace\watchface\2-background\src\main\AndroidManifest.xml:40:13-42:63
	android:resource
		ADDED from E:\A_WORKS\wearFace\watchface\2-background\src\main\AndroidManifest.xml:42:17-60
	android:name
		ADDED from E:\A_WORKS\wearFace\watchface\2-background\src\main\AndroidManifest.xml:41:17-77
meta-data#com.google.android.wearable.watchface.preview_circular
ADDED from E:\A_WORKS\wearFace\watchface\2-background\src\main\AndroidManifest.xml:43:13-45:63
	android:resource
		ADDED from E:\A_WORKS\wearFace\watchface\2-background\src\main\AndroidManifest.xml:45:17-60
	android:name
		ADDED from E:\A_WORKS\wearFace\watchface\2-background\src\main\AndroidManifest.xml:44:17-86
intent-filter#android.service.wallpaper.WallpaperService+com.google.android.wearable.watchface.category.WATCH_FACE
ADDED from E:\A_WORKS\wearFace\watchface\2-background\src\main\AndroidManifest.xml:47:13-51:29
action#android.service.wallpaper.WallpaperService
ADDED from E:\A_WORKS\wearFace\watchface\2-background\src\main\AndroidManifest.xml:48:17-85
	android:name
		ADDED from E:\A_WORKS\wearFace\watchface\2-background\src\main\AndroidManifest.xml:48:25-82
category#com.google.android.wearable.watchface.category.WATCH_FACE
ADDED from E:\A_WORKS\wearFace\watchface\2-background\src\main\AndroidManifest.xml:50:17-102
	android:name
		ADDED from E:\A_WORKS\wearFace\watchface\2-background\src\main\AndroidManifest.xml:50:27-99
meta-data#com.google.android.gms.version
ADDED from E:\A_WORKS\wearFace\watchface\2-background\src\main\AndroidManifest.xml:54:9-56:69
MERGED from [com.google.android.gms:play-services-basement:8.4.0] E:\A_WORKS\wearFace\watchface\2-background\build\intermediates\exploded-aar\com.google.android.gms\play-services-basement\8.4.0\AndroidManifest.xml:21:9-23:69
	android:value
		ADDED from E:\A_WORKS\wearFace\watchface\2-background\src\main\AndroidManifest.xml:56:13-66
	android:name
		ADDED from E:\A_WORKS\wearFace\watchface\2-background\src\main\AndroidManifest.xml:55:13-58
uses-sdk
INJECTED from E:\A_WORKS\wearFace\watchface\2-background\src\main\AndroidManifest.xml reason: use-sdk injection requested
MERGED from [com.google.android.support:wearable:1.4.0] E:\A_WORKS\wearFace\watchface\2-background\build\intermediates\exploded-aar\com.google.android.support\wearable\1.4.0\AndroidManifest.xml:4:5-6:41
MERGED from [com.android.support:support-v4:23.0.1] E:\A_WORKS\wearFace\watchface\2-background\build\intermediates\exploded-aar\com.android.support\support-v4\23.0.1\AndroidManifest.xml:20:5-43
MERGED from [com.android.support:recyclerview-v7:23.0.1] E:\A_WORKS\wearFace\watchface\2-background\build\intermediates\exploded-aar\com.android.support\recyclerview-v7\23.0.1\AndroidManifest.xml:20:5-43
MERGED from [com.android.support:support-v4:23.0.1] E:\A_WORKS\wearFace\watchface\2-background\build\intermediates\exploded-aar\com.android.support\support-v4\23.0.1\AndroidManifest.xml:20:5-43
MERGED from [com.google.android.gms:play-services-wearable:8.4.0] E:\A_WORKS\wearFace\watchface\2-background\build\intermediates\exploded-aar\com.google.android.gms\play-services-wearable\8.4.0\AndroidManifest.xml:18:5-42
MERGED from [com.google.android.gms:play-services-base:8.4.0] E:\A_WORKS\wearFace\watchface\2-background\build\intermediates\exploded-aar\com.google.android.gms\play-services-base\8.4.0\AndroidManifest.xml:18:5-42
MERGED from [com.google.android.gms:play-services-basement:8.4.0] E:\A_WORKS\wearFace\watchface\2-background\build\intermediates\exploded-aar\com.google.android.gms\play-services-basement\8.4.0\AndroidManifest.xml:18:5-42
MERGED from [com.android.support:support-v4:23.0.1] E:\A_WORKS\wearFace\watchface\2-background\build\intermediates\exploded-aar\com.android.support\support-v4\23.0.1\AndroidManifest.xml:20:5-43
	android:targetSdkVersion
		INJECTED from E:\A_WORKS\wearFace\watchface\2-background\src\main\AndroidManifest.xml
		INJECTED from E:\A_WORKS\wearFace\watchface\2-background\src\main\AndroidManifest.xml
	android:minSdkVersion
		INJECTED from E:\A_WORKS\wearFace\watchface\2-background\src\main\AndroidManifest.xml
		INJECTED from E:\A_WORKS\wearFace\watchface\2-background\src\main\AndroidManifest.xml
